[
  {
    "name": "Ashura",
    "description": "On Ashura, many Muslims commemorate the martyrdom of Imam Husayn ibn Ali.",
    "country": {
      "id": "gb",
      "name": "United Kingdom"
    },
    "date": {
      "iso": "1992-07-11",
      "datetime": {
        "year": 1992,
        "month": 7,
        "day": 11
      }
    },
    "type": [
      "Observance",
      "Muslim"
    ],
    "primary_type": "Muslim",
    "canonical_url": "https://calendarific.com/holiday/uk/ashura",
    "urlid": "uk/ashura",
    "locations": "All",
    "states": "All"
  },
  {
    "name": "Battle of the Boyne",
    "description": "Orangemen's Day is a bank holiday in Northern Ireland to commemorate the Battle of the Boyne.",
    "country": {
      "id": "gb",
      "name": "United Kingdom"
    },
    "date": {
      "iso": "1992-07-12",
      "datetime": {
        "year": 1992,
        "month": 7,
        "day": 12
      }
    },
    "type": [
      "Local holiday"
    ],
    "primary_type": "Local Bank Holiday",
    "canonical_url": "https://calendarific.com/holiday/uk/orangemen-day",
    "urlid": "uk/orangemen-day",
    "locations": "NIR",
    "states": [
      {
        "id": 73,
        "abbrev": "NIR",
        "name": "Northern Ireland",
        "exception": null,
        "iso": "gb-nir"
      }
    ]
  },
  {
    "name": "Battle of the Boyne observed",
    "description": "Orangemen's Day is a bank holiday in Northern Ireland to commemorate the Battle of the Boyne.",
    "country": {
      "id": "gb",
      "name": "United Kingdom"
    },
    "date": {
      "iso": "1992-07-13",
      "datetime": {
        "year": 1992,
        "month": 7,
        "day": 13
      }
    },
    "type": [
      "Local holiday"
    ],
    "primary_type": "Local Bank Holiday",
    "canonical_url": "https://calendarific.com/holiday/uk/orangemen-day",
    "urlid": "uk/orangemen-day",
    "locations": "NIR",
    "states": [
      {
        "id": 73,
        "abbrev": "NIR",
        "name": "Northern Ireland",
        "exception": null,
        "iso": "gb-nir"
      }
    ]
  },
  {
    "name": "Summer Bank Holiday",
    "description": "The summer bank holiday is on the first Monday of August in Scotland and the last Monday of August in England, Wales and Northern Ireland.",
    "country": {
      "id": "gb",
      "name": "United Kingdom"
    },
    "date": {
      "iso": "1992-08-03",
      "datetime": {
        "year": 1992,
        "month": 8,
        "day": 3
      }
    },
    "type": [
      "Common local holiday"
    ],
    "primary_type": "Common Local Holiday",
    "canonical_url": "https://calendarific.com/holiday/uk/summer-bank-holiday",
    "urlid": "uk/summer-bank-holiday",
    "locations": "SCT",
    "states": [
      {
        "id": 72,
        "abbrev": "SCT",
        "name": "Scotland",
        "exception": null,
        "iso": "gb-sct"
      }
    ]
  },
  {
    "name": "Tisha B'Av",
    "description": "Tisha B\u2019Av is a Jewish day of mourning, which falls on the ninth day of the month of Av in the Jewish calendar.",
    "country": {
      "id": "gb",
      "name": "United Kingdom"
    },
    "date": {
      "iso": "1992-08-09",
      "datetime": {
        "year": 1992,
        "month": 8,
        "day": 9
      }
    },
    "type": [
      "Observance",
      "Hebrew"
    ],
    "primary_type": "Jewish Holiday",
    "canonical_url": "https://calendarific.com/holiday/uk/tisha-b-av",
    "urlid": "uk/tisha-b-av",
    "locations": "All",
    "states": "All"
  },
  {
    "name": "Assumption of Mary",
    "description": "The feast of the Dormition or Assumption of the Blessed Virgin Mary is celebrated by some Christian denominations in the United Kingdom on August 15.",
    "country": {
      "id": "gb",
      "name": "United Kingdom"
    },
    "date": {
      "iso": "1992-08-15",
      "datetime": {
        "year": 1992,
        "month": 8,
        "day": 15
      }
    },
    "type": [
      "Observance",
      "Christian"
    ],
    "primary_type": "Christian",
    "canonical_url": "https://calendarific.com/holiday/uk/assumption-of-mary",
    "urlid": "uk/assumption-of-mary",
    "locations": "All",
    "states": "All"
  },
  {
    "name": "Summer Bank Holiday",
    "description": "The summer bank holiday is on the first Monday of August in Scotland and the last Monday of August in England, Wales and Northern Ireland.",
    "country": {
      "id": "gb",
      "name": "United Kingdom"
    },
    "date": {
      "iso": "1992-08-31",
      "datetime": {
        "year": 1992,
        "month": 8,
        "day": 31
      }
    },
    "type": [
      "Common local holiday"
    ],
    "primary_type": "Common Local Holiday",
    "canonical_url": "https://calendarific.com/holiday/uk/summer-bank-holiday",
    "urlid": "uk/summer-bank-holiday",
    "locations": "ENG, WAL, NIR",
    "states": [
      {
        "id": 70,
        "abbrev": "ENG",
        "name": "England",
        "exception": null,
        "iso": "gb-eng"
      },
      {
        "id": 71,
        "abbrev": "WAL",
        "name": "Wales",
        "exception": null,
        "iso": "gb-wls"
      },
      {
        "id": 73,
        "abbrev": "NIR",
        "name": "Northern Ireland",
        "exception": null,
        "iso": "gb-nir"
      }
    ]
  },
  {
    "name": "Milad un Nabi (Mawlid)",
    "description": "Milad un Nabi, also called Mawlid, marks the birthday of prophet Muhammad.",
    "country": {
      "id": "gb",
      "name": "United Kingdom"
    },
    "date": {
      "iso": "1992-09-10",
      "datetime": {
        "year": 1992,
        "month": 9,
        "day": 10
      }
    },
    "type": [
      "Observance",
      "Muslim"
    ],
    "primary_type": "Muslim",
    "canonical_url": "https://calendarific.com/holiday/uk/prophet-birthday",
    "urlid": "uk/prophet-birthday",
    "locations": "All",
    "states": "All"
  }
]