[
  {
    "name": "Ashura",
    "description": "Ashura is a Muslim in the USA",
    "country": {
      "id": "us",
      "name": "United States"
    },
    "date": {
      "iso": "1992-07-11",
      "datetime": {
        "year": 1992,
        "month": 7,
        "day": 11
      }
    },
    "type": [
      "Muslim"
    ],
    "primary_type": "Muslim",
    "canonical_url": "https://calendarific.com/holiday/us/ashura",
    "urlid": "us/ashura",
    "locations": "All",
    "states": "All"
  },
  {
    "name": "World Population Day",
    "description": "The United Nations' (UN) World Population Day reaffirms the human right to plan for a family.",
    "country": {
      "id": "us",
      "name": "United States"
    },
    "date": {
      "iso": "1992-07-11",
      "datetime": {
        "year": 1992,
        "month": 7,
        "day": 11
      }
    },
    "type": [
      "United Nations observance"
    ],
    "primary_type": "United Nations observance",
    "canonical_url": "https://calendarific.com/holiday/un/world-population-day",
    "urlid": "un/world-population-day",
    "locations": "All",
    "states": "All"
  },
  {
    "name": "Nathan Bedford Forrest Day",
    "description": "Nathan Bedford Forrest Day is a local observance in the USA",
    "country": {
      "id": "us",
      "name": "United States"
    },
    "date": {
      "iso": "1992-07-13",
      "datetime": {
        "year": 1992,
        "month": 7,
        "day": 13
      }
    },
    "type": [
      "Local observance"
    ],
    "primary_type": "Local observance",
    "canonical_url": "https://calendarific.com/holiday/us/nathan-bedford-forrest-day",
    "urlid": "us/nathan-bedford-forrest-day",
    "locations": "TN",
    "states": [
      {
        "id": 47,
        "abbrev": "TN",
        "name": "Tennessee",
        "exception": null,
        "iso": "us-tn"
      }
    ]
  },
  {
    "name": "Bastille Day",
    "description": "Bastille Day is a observance in the USA",
    "country": {
      "id": "us",
      "name": "United States"
    },
    "date": {
      "iso": "1992-07-14",
      "datetime": {
        "year": 1992,
        "month": 7,
        "day": 14
      }
    },
    "type": [
      "Observance"
    ],
    "primary_type": "Observance",
    "canonical_url": "https://calendarific.com/holiday/us/bastille-day",
    "urlid": "us/bastille-day",
    "locations": "All",
    "states": "All"
  },
  {
    "name": "Pioneer Day",
    "description": "Pioneer Day is an annual state holiday in Utah in the United States. It is celebrated to honor the pioneers who demonstrated industry and bravery when they ventured to settle in a place that is now Salt Lake City.",
    "country": {
      "id": "us",
      "name": "United States"
    },
    "date": {
      "iso": "1992-07-24",
      "datetime": {
        "year": 1992,
        "month": 7,
        "day": 24
      }
    },
    "type": [
      "Local holiday"
    ],
    "primary_type": "State Holiday",
    "canonical_url": "https://calendarific.com/holiday/us/pioneer-day",
    "urlid": "us/pioneer-day",
    "locations": "UT",
    "states": [
      {
        "id": 49,
        "abbrev": "UT",
        "name": "Utah",
        "exception": null,
        "iso": "us-ut"
      }
    ]
  },
  {
    "name": "Colorado Day",
    "description": "Colorado Day is an annual observance that commemorates the state\u2019s birthday on August 1, 1876, and its history.",
    "country": {
      "id": "us",
      "name": "United States"
    },
    "date": {
      "iso": "1992-08-01",
      "datetime": {
        "year": 1992,
        "month": 8,
        "day": 1
      }
    },
    "type": [
      "Local observance"
    ],
    "primary_type": "State Observance",
    "canonical_url": "https://calendarific.com/holiday/us/colorado-day",
    "urlid": "us/colorado-day",
    "locations": "CO",
    "states": [
      {
        "id": 8,
        "abbrev": "CO",
        "name": "Colorado",
        "exception": null,
        "iso": "us-co"
      }
    ]
  },
  {
    "name": "American Family Day",
    "description": "American Family Day is a state holiday in the USA",
    "country": {
      "id": "us",
      "name": "United States"
    },
    "date": {
      "iso": "1992-08-02",
      "datetime": {
        "year": 1992,
        "month": 8,
        "day": 2
      }
    },
    "type": [
      "Local holiday"
    ],
    "primary_type": "State Holiday",
    "canonical_url": "https://calendarific.com/holiday/us/american-family-day",
    "urlid": "us/american-family-day",
    "locations": "AZ",
    "states": [
      {
        "id": 4,
        "abbrev": "AZ",
        "name": "Arizona",
        "exception": null,
        "iso": "us-az"
      }
    ]
  },
  {
    "name": "Coast Guard Birthday",
    "description": "Coast Guard Birthday is a observance in the USA",
    "country": {
      "id": "us",
      "name": "United States"
    },
    "date": {
      "iso": "1992-08-04",
      "datetime": {
        "year": 1992,
        "month": 8,
        "day": 4
      }
    },
    "type": [
      "Observance"
    ],
    "primary_type": "Observance",
    "canonical_url": "https://calendarific.com/holiday/us/coast-guard-birthday",
    "urlid": "us/coast-guard-birthday",
    "locations": "All",
    "states": "All"
  },
  {
    "name": "Purple Heart Day",
    "description": "Purple Heart Day on August 7 commemorates the day in 1782 when General George Washington created the Purple Heart Medal \u2013 a military decoration that is awarded to those wounded or killed while serving in the United States Armed Forces.",
    "country": {
      "id": "us",
      "name": "United States"
    },
    "date": {
      "iso": "1992-08-07",
      "datetime": {
        "year": 1992,
        "month": 8,
        "day": 7
      }
    },
    "type": [
      "Observance"
    ],
    "primary_type": "Observance",
    "canonical_url": "https://calendarific.com/holiday/us/purple-heart-day",
    "urlid": "us/purple-heart-day",
    "locations": "All",
    "states": "All"
  },
  {
    "name": "Tisha B'Av",
    "description": "Tisha B\u2019Av is on the ninth day of the month of Av in the Jewish calendar.",
    "country": {
      "id": "us",
      "name": "United States"
    },
    "date": {
      "iso": "1992-08-09",
      "datetime": {
        "year": 1992,
        "month": 8,
        "day": 9
      }
    },
    "type": [
      "Hebrew"
    ],
    "primary_type": "Jewish holiday",
    "canonical_url": "https://calendarific.com/holiday/us/tisha-b-av",
    "urlid": "us/tisha-b-av",
    "locations": "All",
    "states": "All"
  },
  {
    "name": "Victory Day",
    "description": "Victory Day, also known as VJ Day, is an annual state holiday celebrated on the second Monday in August in Rhode Island in the United States. It marks the anniversary of the Allies\u2019 victory over Japan during World War II.",
    "country": {
      "id": "us",
      "name": "United States"
    },
    "date": {
      "iso": "1992-08-10",
      "datetime": {
        "year": 1992,
        "month": 8,
        "day": 10
      }
    },
    "type": [
      "Local holiday"
    ],
    "primary_type": "State Holiday",
    "canonical_url": "https://calendarific.com/holiday/us/victory-day",
    "urlid": "us/victory-day",
    "locations": "RI",
    "states": [
      {
        "id": 44,
        "abbrev": "RI",
        "name": "Rhode Island",
        "exception": null,
        "iso": "us-ri"
      }
    ]
  },
  {
    "name": "Assumption of Mary",
    "description": "Assumption Day is a Christian observance in the United States that is held annually on August 15. Catholics observe the Dormition (falling asleep) or the day that the Blessed Virgin Mary was received into heaven.",
    "country": {
      "id": "us",
      "name": "United States"
    },
    "date": {
      "iso": "1992-08-15",
      "datetime": {
        "year": 1992,
        "month": 8,
        "day": 15
      }
    },
    "type": [
      "Christian"
    ],
    "primary_type": "Christian",
    "canonical_url": "https://calendarific.com/holiday/us/assumption-of-mary",
    "urlid": "us/assumption-of-mary",
    "locations": "All",
    "states": "All"
  },
  {
    "name": "Bennington Battle Day",
    "description": "Bennington Battle Day is a state holiday in Vermont. It commemorates the American victory at the Battle of Bennington during the Revolutionary War in north America in 1777.",
    "country": {
      "id": "us",
      "name": "United States"
    },
    "date": {
      "iso": "1992-08-16",
      "datetime": {
        "year": 1992,
        "month": 8,
        "day": 16
      }
    },
    "type": [
      "Local holiday"
    ],
    "primary_type": "State Holiday",
    "canonical_url": "https://calendarific.com/holiday/us/bennington-battle-day",
    "urlid": "us/bennington-battle-day",
    "locations": "VT",
    "states": [
      {
        "id": 50,
        "abbrev": "VT",
        "name": "Vermont",
        "exception": null,
        "iso": "us-vt"
      }
    ]
  },
  {
    "name": "National Senior Citizens Day",
    "description": "National Senior Citizens Day is an observance on the third Sunday of August to honor the contributions of senior citizens in the United States.",
    "country": {
      "id": "us",
      "name": "United States"
    },
    "date": {
      "iso": "1992-08-16",
      "datetime": {
        "year": 1992,
        "month": 8,
        "day": 16
      }
    },
    "type": [
      "Observance"
    ],
    "primary_type": "Observance",
    "canonical_url": "https://calendarific.com/holiday/us/senior-citizens-day",
    "urlid": "us/senior-citizens-day",
    "locations": "All",
    "states": "All"
  },
  {
    "name": "Bennington Battle Day observed",
    "description": "Bennington Battle Day is a state holiday in Vermont. It commemorates the American victory at the Battle of Bennington during the Revolutionary War in north America in 1777.",
    "country": {
      "id": "us",
      "name": "United States"
    },
    "date": {
      "iso": "1992-08-17",
      "datetime": {
        "year": 1992,
        "month": 8,
        "day": 17
      }
    },
    "type": [
      "Local holiday"
    ],
    "primary_type": "State Holiday",
    "canonical_url": "https://calendarific.com/holiday/us/bennington-battle-day",
    "urlid": "us/bennington-battle-day",
    "locations": "VT",
    "states": [
      {
        "id": 50,
        "abbrev": "VT",
        "name": "Vermont",
        "exception": null,
        "iso": "us-vt"
      }
    ]
  },
  {
    "name": "National Aviation Day",
    "description": "National Aviation Day is observed in the United States on August 19 each year to celebrate the history and development of the aviation.",
    "country": {
      "id": "us",
      "name": "United States"
    },
    "date": {
      "iso": "1992-08-19",
      "datetime": {
        "year": 1992,
        "month": 8,
        "day": 19
      }
    },
    "type": [
      "Observance"
    ],
    "primary_type": "Observance",
    "canonical_url": "https://calendarific.com/holiday/us/national-aviation-day",
    "urlid": "us/national-aviation-day",
    "locations": "All",
    "states": "All"
  },
  {
    "name": "Hawaii Statehood Day",
    "description": "Hawaii\u2019s Statehood Day is celebrated on the third Friday of August to commemorate the anniversary of Hawaii\u2019s statehood.",
    "country": {
      "id": "us",
      "name": "United States"
    },
    "date": {
      "iso": "1992-08-21",
      "datetime": {
        "year": 1992,
        "month": 8,
        "day": 21
      }
    },
    "type": [
      "Local holiday"
    ],
    "primary_type": "State Holiday",
    "canonical_url": "https://calendarific.com/holiday/us/hawaii-statehood-day",
    "urlid": "us/hawaii-statehood-day",
    "locations": "HI",
    "states": [
      {
        "id": 14,
        "abbrev": "HI",
        "name": "Hawaii",
        "exception": null,
        "iso": "us-hi"
      }
    ]
  },
  {
    "name": "Women's Equality Day",
    "description": "Women's Equality Day on August 26 is an annual observance that commemorates the anniversary of the first time voting rights were extended to women in the United States.",
    "country": {
      "id": "us",
      "name": "United States"
    },
    "date": {
      "iso": "1992-08-26",
      "datetime": {
        "year": 1992,
        "month": 8,
        "day": 26
      }
    },
    "type": [
      "Observance"
    ],
    "primary_type": "Observance",
    "canonical_url": "https://calendarific.com/holiday/us/women-equality-day",
    "urlid": "us/women-equality-day",
    "locations": "All",
    "states": "All"
  },
  {
    "name": "Lyndon Baines Johnson Day",
    "description": "Lyndon Baines Johnson Day is a state holiday in Texas in the United States on August 27 each year. It commemorates the birthday of Lyndon Baines Johnson, who was the 36th president of the USA.",
    "country": {
      "id": "us",
      "name": "United States"
    },
    "date": {
      "iso": "1992-08-27",
      "datetime": {
        "year": 1992,
        "month": 8,
        "day": 27
      }
    },
    "type": [
      "Local holiday"
    ],
    "primary_type": "State Holiday",
    "canonical_url": "https://calendarific.com/holiday/us/lyndon-baines-johnson-day",
    "urlid": "us/lyndon-baines-johnson-day",
    "locations": "TX",
    "states": [
      {
        "id": 48,
        "abbrev": "TX",
        "name": "Texas",
        "exception": null,
        "iso": "us-tx"
      }
    ]
  },
  {
    "name": "Labor Day",
    "description": "Labor Day is a federal holiday in the United States. It gives workers a day of rest and it celebrates their contribution to the American economy.",
    "country": {
      "id": "us",
      "name": "United States"
    },
    "date": {
      "iso": "1992-09-07",
      "datetime": {
        "year": 1992,
        "month": 9,
        "day": 7
      }
    },
    "type": [
      "National holiday"
    ],
    "primary_type": "Federal Holiday",
    "canonical_url": "https://calendarific.com/holiday/us/labor-day",
    "urlid": "us/labor-day",
    "locations": "All",
    "states": "All"
  },
  {
    "name": "International Literacy Day",
    "description": "The United Nations' (UN) International Literacy Day is held on September 8 each year.",
    "country": {
      "id": "us",
      "name": "United States"
    },
    "date": {
      "iso": "1992-09-08",
      "datetime": {
        "year": 1992,
        "month": 9,
        "day": 8
      }
    },
    "type": [
      "United Nations observance"
    ],
    "primary_type": "United Nations observance",
    "canonical_url": "https://calendarific.com/holiday/un/international-literacy-day",
    "urlid": "un/international-literacy-day",
    "locations": "All",
    "states": "All"
  },
  {
    "name": "California Admission Day",
    "description": "California Admission Day is an annual legal observance in California, in the United States.",
    "country": {
      "id": "us",
      "name": "United States"
    },
    "date": {
      "iso": "1992-09-09",
      "datetime": {
        "year": 1992,
        "month": 9,
        "day": 9
      }
    },
    "type": [
      "Local holiday"
    ],
    "primary_type": "State Holiday",
    "canonical_url": "https://calendarific.com/holiday/us/california-admission-day",
    "urlid": "us/california-admission-day",
    "locations": "CA (partly)",
    "states": [
      {
        "id": 7,
        "abbrev": "CA",
        "name": "California",
        "exception": "partly",
        "iso": "us-ca"
      }
    ]
  },
  {
    "name": "The Prophet's Birthday",
    "description": "Eid Milad ul-Nabi (Mawlid or Milad-un-Nabi) commemorates the Prophet Muhammed's birthday.",
    "country": {
      "id": "us",
      "name": "United States"
    },
    "date": {
      "iso": "1992-09-10",
      "datetime": {
        "year": 1992,
        "month": 9,
        "day": 10
      }
    },
    "type": [
      "Muslim"
    ],
    "primary_type": "Muslim",
    "canonical_url": "https://calendarific.com/holiday/us/prophet-birthday",
    "urlid": "us/prophet-birthday",
    "locations": "All",
    "states": "All"
  },
  {
    "name": "Carl Garner Federal Lands Cleanup Day",
    "description": "Carl Garner Federal Lands Cleanup Day encourages people in the United States to participate in cleaning up the federal lands. It is observed on the first Saturday after Labor Day.",
    "country": {
      "id": "us",
      "name": "United States"
    },
    "date": {
      "iso": "1992-09-12",
      "datetime": {
        "year": 1992,
        "month": 9,
        "day": 12
      }
    },
    "type": [
      "Observance"
    ],
    "primary_type": "Observance",
    "canonical_url": "https://calendarific.com/holiday/us/carl-garner-cleanup-day",
    "urlid": "us/carl-garner-cleanup-day",
    "locations": "All",
    "states": "All"
  },
  {
    "name": "National Grandparents Day",
    "description": "National Grandparents Day is celebrated on the first Sunday of September after Labor Day in the United States.",
    "country": {
      "id": "us",
      "name": "United States"
    },
    "date": {
      "iso": "1992-09-13",
      "datetime": {
        "year": 1992,
        "month": 9,
        "day": 13
      }
    },
    "type": [
      "Observance"
    ],
    "primary_type": "Observance",
    "canonical_url": "https://calendarific.com/holiday/us/national-grandparents-day",
    "urlid": "us/national-grandparents-day",
    "locations": "All",
    "states": "All"
  },
  {
    "name": "Constitution Commemoration Day",
    "description": "Constitution Day and Citizenship Day is a combined event that occurs in the United States on September 17 each year.",
    "country": {
      "id": "us",
      "name": "United States"
    },
    "date": {
      "iso": "1992-09-13",
      "datetime": {
        "year": 1992,
        "month": 9,
        "day": 13
      }
    },
    "type": [
      "Local holiday"
    ],
    "primary_type": "State Holiday",
    "canonical_url": "https://calendarific.com/holiday/us/constitution-citizenship-day",
    "urlid": "us/constitution-citizenship-day",
    "locations": "AZ",
    "states": [
      {
        "id": 4,
        "abbrev": "AZ",
        "name": "Arizona",
        "exception": null,
        "iso": "us-az"
      }
    ]
  },
  {
    "name": "International Day of Peace",
    "description": "The United Nations' (UN) International Day of Peace is annually held on September 21 to recognize the efforts of individuals, organizations and governments to end conflict and promote peace.",
    "country": {
      "id": "us",
      "name": "United States"
    },
    "date": {
      "iso": "1992-09-15",
      "datetime": {
        "year": 1992,
        "month": 9,
        "day": 15
      }
    },
    "type": [
      "United Nations observance"
    ],
    "primary_type": "United Nations observance",
    "canonical_url": "https://calendarific.com/holiday/un/international-peace-day",
    "urlid": "un/international-peace-day",
    "locations": "All",
    "states": "All"
  },
  {
    "name": "First Day of National Hispanic Heritage Month",
    "description": "First Day of National Hispanic Heritage Month is a annual monthly observance in the USA",
    "country": {
      "id": "us",
      "name": "United States"
    },
    "date": {
      "iso": "1992-09-15",
      "datetime": {
        "year": 1992,
        "month": 9,
        "day": 15
      }
    },
    "type": [
      "Observance"
    ],
    "primary_type": "Annual Monthly Observance",
    "canonical_url": "https://calendarific.com/holiday/us/first-day-of-national-hispanic-heritage-month",
    "urlid": "us/first-day-of-national-hispanic-heritage-month",
    "locations": "All",
    "states": "All"
  },
  {
    "name": "Citizenship Day",
    "description": "Constitution Day and Citizenship Day is a combined event that occurs in the United States on September 17 each year.",
    "country": {
      "id": "us",
      "name": "United States"
    },
    "date": {
      "iso": "1992-09-17",
      "datetime": {
        "year": 1992,
        "month": 9,
        "day": 17
      }
    },
    "type": [
      "Observance"
    ],
    "primary_type": "Observance",
    "canonical_url": "https://calendarific.com/holiday/us/constitution-citizenship-day",
    "urlid": "us/constitution-citizenship-day",
    "locations": "All",
    "states": "All"
  },
  {
    "name": "Air Force Birthday",
    "description": "Air Force Birthday is a observance in the USA",
    "country": {
      "id": "us",
      "name": "United States"
    },
    "date": {
      "iso": "1992-09-18",
      "datetime": {
        "year": 1992,
        "month": 9,
        "day": 18
      }
    },
    "type": [
      "Observance"
    ],
    "primary_type": "Observance",
    "canonical_url": "https://calendarific.com/holiday/us/air-force-birthday",
    "urlid": "us/air-force-birthday",
    "locations": "All",
    "states": "All"
  },
  {
    "name": "National POW/MIA Recognition Day",
    "description": "National POW/MIA Recognition Day is annually observed in the United States on the third Friday of September.",
    "country": {
      "id": "us",
      "name": "United States"
    },
    "date": {
      "iso": "1992-09-18",
      "datetime": {
        "year": 1992,
        "month": 9,
        "day": 18
      }
    },
    "type": [
      "Observance"
    ],
    "primary_type": "Observance",
    "canonical_url": "https://calendarific.com/holiday/us/pow-mia-recognition-day",
    "urlid": "us/pow-mia-recognition-day",
    "locations": "All",
    "states": "All"
  }
]